<svg xmlns="http://www.w3.org/2000/svg" xmlns:xlink="http://www.w3.org/1999/xlink" viewBox="0 0 1024 768">
  <defs>
    <style>

      .cls-3 {
        opacity: 0.7;
      }

      .cls-4 {
        fill: #ec6607;
        opacity: 0.3;
      }

      .cls-5 {
        fill: #48789f;
        opacity: 0.3;
      }
    </style>
  </defs>
  <g id="bkgsvg">
    <g id="right-copy" class="cls-3">
      <path d="M1024.000,768.000 C1024.000,768.000 742.000,768.000 742.000,768.000 C742.000,768.000 1002.500,132.251 1002.500,133.000 C1002.500,133.552 938.000,-0.000 938.000,-0.000 C938.000,-0.000 1024.000,-0.500 1024.000,-0.500 C1024.000,-0.500 1024.000,768.000 1024.000,768.000 Z" id="path-1" class="cls-4" fill-rule="evenodd"/>
      <path d="M1002.499,133.000 C1002.499,133.000 1024.000,93.000 1024.000,93.000 C1024.000,93.000 1024.000,173.000 1024.000,173.000 C1024.000,173.000 1002.499,133.000 1002.499,133.000 Z" id="path-2" class="cls-5" fill-rule="evenodd"/>
    </g>
    <g id="right-copy-2" class="cls-3">
      <path d="M-0.000,0.500 C-0.000,0.500 196.000,-0.000 196.000,-0.000 C196.000,-0.000 21.529,415.249 21.529,414.500 C21.529,413.948 192.756,768.000 192.756,768.000 C192.756,768.000 -0.000,768.000 -0.000,768.000 C-0.000,768.000 -0.000,0.500 -0.000,0.500 Z" id="path-3" class="cls-5" fill-rule="evenodd"/>
      <path d="M21.001,414.500 C21.001,414.500 -0.000,453.000 -0.000,453.000 C-0.000,453.000 -0.000,375.000 -0.000,375.000 C-0.000,375.000 21.001,414.500 21.001,414.500 Z" id="path-4" class="cls-4" fill-rule="evenodd"/>
    </g>
  </g>
</svg>
