<svg xmlns="http://www.w3.org/2000/svg" xmlns:xlink="http://www.w3.org/1999/xlink" preserveAspectRatio="xMidYMid" width="26" height="27" viewBox="0 0 26 27">
  <defs>
    <style>

      .cls-2 {
        fill: #000000;
      }
    </style>
  </defs>
  <path d="M12.993,23.993 C18.277,23.993 22.636,20.086 23.372,15.006 C23.372,15.006 23.541,15.006 23.541,15.006 C23.655,14.434 24.137,13.993 24.743,13.993 C25.433,13.993 25.993,14.553 25.993,15.243 C25.993,15.514 25.889,15.751 25.743,15.955 C24.590,21.955 19.329,26.493 12.993,26.493 C5.813,26.493 -0.007,20.673 -0.007,13.493 C-0.007,6.313 5.813,0.493 12.993,0.493 C16.756,0.493 20.122,2.113 22.493,4.670 C22.493,4.670 22.493,1.243 22.493,1.243 C22.493,0.553 23.053,-0.007 23.743,-0.007 C24.433,-0.007 24.993,0.553 24.993,1.243 C24.993,1.243 24.993,7.743 24.993,7.743 C24.993,8.434 24.433,8.993 23.743,8.993 C23.743,8.993 17.243,8.993 17.243,8.993 C16.553,8.993 15.993,8.434 15.993,7.743 C15.993,7.053 16.553,6.493 17.243,6.493 C17.243,6.493 20.803,6.493 20.803,6.493 C18.880,4.350 16.099,2.993 12.993,2.993 C7.194,2.993 2.493,7.694 2.493,13.493 C2.493,19.292 7.194,23.993 12.993,23.993 Z" id="path-1" class="cls-2" fill-rule="evenodd"/>
</svg>
